{
  "items": [
    {
      "id": null,
      "link": "seo-ranking-tools.de"
    },
    {
      "id": null,
      "link": "stern.de"
    },
    {
      "id": null,
      "link": "intent.de"
    },
    {
      "id": null,
      "link": "shopware-agentur.ch"
    },
    {
      "id": null,
      "link": "pr-inside.com"
    },
    {
      "id": null,
      "link": "da-ag.com"
    },
    {
      "id": null,
      "link": "reports.pr-inside.com"
    },
    {
      "id": null,
      "link": "computer.pr-gateway.de"
    },
    {
      "id": null,
      "link": "handel.pr-gateway.de"
    },
    {
      "id": null,
      "link": "seo-united.de"
    },
    {
      "id": null,
      "link": "ys-consulting.de"
    },
    {
      "id": null,
      "link": "lichtvomsee.de"
    },
    {
      "id": null,
      "link": "newdy.org"
    },
    {
      "id": null,
      "link": "schweizer-portal.ch"
    },
    {
      "id": null,
      "link": "weblinkcatalog.de"
    },
    {
      "id": null,
      "link": "rsskat.de"
    },
    {
      "id": null,
      "link": "fair-news.de"
    },
    {
      "id": null,
      "link": "presseschleuder.com"
    },
    {
      "id": null,
      "link": "rss-info.net"
    },
    {
      "id": null,
      "link": "pressnetwork.de"
    }
  ],
  "_links": {
    "self": {
      "href": "http://seoapi.loc/api/web/v1/pages/1/backlinks/unique?page=1"
    },
    "next": {
      "href": "http://seoapi.loc/api/web/v1/pages/1/backlinks/unique?page=2"
    },
    "last": {
      "href": "http://seoapi.loc/api/web/v1/pages/1/backlinks/unique?page=2"
    }
  },
  "_meta": {
    "totalCount": 37,
    "pageCount": 2,
    "currentPage": 1,
    "perPage": 20
  }
}